…
    ## Warning: `data_frame()` was deprecated in tibble 1.1.0.
    ## Please use `tibble()` instead.
    ## This warning is displayed once every 8 hours.
    ## Call `lifecycle::last_lifecycle_warnings()` to see where this warning was generated.

``` r
boot_straps
```

    ## # A tibble: 5,000 x 2
    ##    strap_number strap_sample      
    ##           <int> <list>            
    ##  1            1 <tibble [365 x 6]>
    ##  2            2 <tibble [365 x 6]>
    ##  3            3 <tibble [365 x 6]>
    ##  4            4 <tibble [365 x 6]>
    ##  5            5 <tibble [365 x 6]>
    ##  6            6 <tibble [365 x 6]>
    ##  7            7 <tibble [365 x 6]>
    ##  8            8 <tibble [365 x 6]>
    ##  9            9 <tibble [365 x 6]>
    ## 10           10 <tibble [365 x 6]>
    ## # ... with 4,990 more rows

Checking to see if it works

``` r
boot_straps %>% 
  filter(strap_number %in% 1:2) %>% 
  mutate(strap_sample = map(strap_sample, ~arrange(.x, tmin))) %>% 
  pull(strap_sample)
```

    ## [[1]]
    ## # A tibble: 365 x 6
    ##    name           id          date        prcp  tmax  tmin
    ##    <chr>          <chr>       <date>     <dbl> <dbl> <dbl>
    ##  1 CentralPark_NY USW00094728 2017-12-31     0  -6   -12.7
    ##  2 CentralPark_NY USW00094728 2017-12-31     0  -6   -12.7
    ##  3 CentralPark_NY USW00094728 2017-12-29     0  -5.5 -11.6
    ##  4 CentralPark_NY USW00094728 2017-12-29     0  -5.5 -11.6
    ##  5 CentralPark_NY USW00094728 2017-03-05     0   2.8  -9.9
    ##  6 CentralPark_NY USW00094728 2017-01-09     0  -4.9  -9.9
    ##  7 CentralPark_NY USW00094728 2017-01-09     0  -4.9  -9.9
    ##  8 CentralPark_NY USW00094728 2017-01-08     0  -3.8  -8.8
    ##  9 CentralPark_NY USW00094728 2017-03-11     0  -1.6  -8.2
    ## 10 CentralPark_NY USW00094728 2017-12-30    13  -4.9  -8.2
    ## # ... with 355 more rows
    ## 
    ## [[2]]
    ## # A tibble: 365 x 6
    ##    name           id          date        prcp  tmax  tmin
    ##    <chr>          <chr>       <date>     <dbl> <dbl> <dbl>
    ##  1 CentralPark_NY USW00094728 2017-12-29     0  -5.5 -11.6
    ##  2 CentralPark_NY USW00094728 2017-12-28     0  -7.7 -11.6
    ##  3 CentralPark_NY USW00094728 2017-01-08     0  -3.8  -8.8
    ##  4 CentralPark_NY USW00094728 2017-01-08     0  -3.8  -8.8
    ##  5 CentralPark_NY USW00094728 2017-03-11     0  -1.6  -8.2
    ##  6 CentralPark_NY USW00094728 2017-12-27     0  -4.3  -8.2
    ##  7 CentralPark_NY USW00094728 2017-12-30    13  -4.9  -8.2
    ##  8 CentralPark_NY USW00094728 2017-12-30    13  -4.9  -8.2
    ##  9 CentralPark_NY USW00094728 2017-02-10     0   0    -7.1
    ## 10 CentralPark_NY USW00094728 2017-03-12     0  -1.6  -7.1
    ## # ... with 355 more rows
…
